Chapter 5 Tidyverse R | Advanced R
…
select(mov, Title, Year, Revenue, Metascore) %>%
  group_split(Year)
length(movies_year)
#> [1] 11
movies_year[1]
#> <list_of<
#>   tbl_df<
#>     Title    : character
#>     Year     : integer
#>     Revenue  : double
#>     Metascore: integer
#>   >
#> >[1]>
#> [[1]]
#> # A tibble: 44 x 4
#>    Title                              Year Revenue Metascore
#>    <chr>                             <int>   <dbl>     <int>
#>  1 The Prestige                       2006    53.1        66
#>  2 Pirates of the Caribbean: Dead M~  2006   423.         53
#>  3 The Departed                       2006   132.         85
#>  4 300                                2006   211.         52
#>  5 Casino Royale                      2006   167.         80
#>  6 Cars                               2006   244.         73
#>  7 Pan's Labyrinth                    2006    37.6        98
#>  8 Apocalypto                         2006    50.9        68
#>  9 Children of Men                    2006    35.3        84
#> 10 The Devil Wears Prada              2006   125.         62
#> # ... with 34 more rows
…
